{
  "db": {
    "name": "db",
    "connector": "memory"
  },
  "loopback": {
    "host": "127.0.0.1",
    "port": 27017,
    "url": "mongodb://127.0.0.1:27017/loopback",
    "database": "loopback",
    "password": "demo",
    "name": "loopback",
    "user": "loopback",
    "connector": "mongodb"
  }
}
